{
    "name": "zazuberlin/sitepackage",
    "type": "project",
    "description": "This is the general TYPO3 page setup from 2024. It includes gesitrelpackage.",
    "authors": [
        {
            "name": "Thomas Hezel",
            "role": "Developer",
            "email": "info@zazu.berlin"
        }
     ],
	"license": "GPL-2.0-or-later",
	"config": {
		"allow-plugins": {
			"typo3/class-alias-loader": true,
			"typo3/cms-composer-installers": true
		},
		"platform": {
			"php": "8.3"
		},
		"sort-packages": true
	},
	"repositories": [
        {
            "type": "vcs",
            "url": "https://thomas-hezel@bitbucket.org/thomas-hezel/gesitrelpackage.git"
         }
	],
	"require": {
		"georgringer/news": "^11",
        "georgringer/numbered-pagination": "^2",
        "helhum/typo3-console": "^8",
        "pagemachine/typo3-formlog": "^2",
        "lochmueller/sourceopt": "^5",
        "reelworx/rx-shariff": "^15",
        "sbtheke/cookies": "^9",
		"t3/dce": "^3",
		"typo3/cms-about": "^12.4",
		"typo3/cms-adminpanel": "^12.4",
		"typo3/cms-backend": "^12.4",
		"typo3/cms-belog": "^12.4",
		"typo3/cms-beuser": "^12.4",
		"typo3/cms-core": "^12.4",
		"typo3/cms-dashboard": "^12.4",
		"typo3/cms-extbase": "^12.4",
		"typo3/cms-extensionmanager": "^12.4",
		"typo3/cms-felogin": "^12.4",
		"typo3/cms-filelist": "^12.4",
		"typo3/cms-fluid": "^12.4",
		"typo3/cms-fluid-styled-content": "^12.4",
		"typo3/cms-form": "^12.4",
		"typo3/cms-frontend": "^12.4",
		"typo3/cms-impexp": "^12.4",
		"typo3/cms-info": "^12.4",
		"typo3/cms-install": "^12.4",
		"typo3/cms-linkvalidator": "^12.4",
		"typo3/cms-lowlevel": "^12.4",
		"typo3/cms-reactions": "^12.4.0",
		"typo3/cms-recordlist": "^12.4",
		"typo3/cms-redirects": "^12.4",
		"typo3/cms-rte-ckeditor": "^12.4",
		"typo3/cms-scheduler": "^12.4",
		"typo3/cms-seo": "^12.4",
		"typo3/cms-setup": "^12.4",
		"typo3/cms-sys-note": "^12.4",
		"typo3/cms-t3editor": "^12.4",
		"typo3/cms-tstemplate": "^12.4",
		"typo3/cms-viewpage": "^12.4",
		"typo3/cms-webhooks": "^12.4.0",
		"zazuberlin/gesitrelpackage": "dev-main"
	},
    "scripts": {
        "typo3-cms-scripts": [
            "typo3cms install:fixfolderstructure",
            "typo3cms database:updateschema '*.add,*.change'",
            "typo3cms cache:flush"
        ]
    }
}
